<svg width="13px" height="12px" viewBox="0 0 13 12" version="1.1" xmlns="http://www.w3.org/2000/svg" xmlns:xlink="http://www.w3.org/1999/xlink">
    <!-- Generator: Sketch 48.2 (47327) - http://www.bohemiancoding.com/sketch -->
    <desc>Created with Sketch.</desc>
    <defs></defs>
    <g id="Page-1" stroke="none" stroke-width="1" fill="none" fill-rule="evenodd">
        <g id="Desktop---Formulär" transform="translate(-387.000000, -1532.000000)" fill="#FFFFFF">
            <path d="M399.511449,1532.63799 L399.163357,1532.33893 C398.585555,1531.8424 397.717286,1531.89775 397.207156,1532.46344 L391.384012,1538.92015 L389.62627,1537.40628 C389.049077,1536.90919 388.180676,1536.96342 387.669936,1537.5285 L387.362162,1537.86907 C387.112571,1538.14509 386.982977,1538.50919 387.001797,1538.88111 C387.020803,1539.25282 387.186632,1539.60179 387.463075,1539.85127 L390.685098,1542.80181 C390.96406,1543.06378 391.337916,1543.2004 391.720043,1543.18012 C392.102171,1543.15989 392.459434,1542.98434 392.709052,1542.69427 L399.660419,1534.61728 C399.903278,1534.33508 400.024018,1533.96801 399.996026,1533.59686 C399.968061,1533.22544 399.793803,1532.88058 399.511449,1532.63799" id="Fill-1"></path>
        </g>
    </g>
</svg>
