<?xml version="1.0" encoding="UTF-8" standalone="no"?>
<svg width="42px" height="42px" viewBox="0 0 42 42" version="1.1" xmlns="http://www.w3.org/2000/svg" xmlns:xlink="http://www.w3.org/1999/xlink">
    <!-- Generator: Sketch 48.2 (47327) - http://www.bohemiancoding.com/sketch -->
    <title>Shape</title>
    <desc>Created with Sketch.</desc>
    <defs>
        <path d="M1073.48536,403.514782 C1071.21882,401.248323 1068.2054,400 1065,400 C1061.79468,400 1058.78126,401.248323 1056.51472,403.514782 C1054.24825,405.78124 1053,408.794727 1053,412.000116 C1053,415.20535 1054.24825,418.218838 1056.51472,420.485296 C1058.78126,422.751831 1061.79468,424 1065,424 C1068.20532,424 1071.21874,422.751754 1073.48528,420.485296 C1075.75183,418.218838 1077,415.20535 1077,412.000116 C1077.00008,408.794727 1075.75183,405.78124 1073.48536,403.514782 Z M1063.22331,403.816053 C1063.40886,403.623997 1063.65932,403.516483 1063.92865,403.516483 L1066.0975,403.516483 C1066.36683,403.516483 1066.61728,403.625003 1066.80245,403.817213 C1066.9877,404.009424 1067.08423,404.266142 1067.07425,404.535314 L1066.71582,412.648758 C1066.69548,413.198086 1066.23162,413.649103 1065.68183,413.649103 L1064.31841,413.649103 C1063.7683,413.649103 1063.30522,413.197467 1063.28619,412.64783 L1062.95011,404.532143 C1062.94075,404.262971 1063.03775,404.008263 1063.22331,403.816053 Z M1065.02599,420.789661 C1063.76784,420.789661 1062.81908,419.7962 1062.81908,418.478805 C1062.81908,417.146636 1063.7567,416.142037 1065,416.142037 C1066.28414,416.142037 1067.18092,417.102934 1067.18092,418.478805 C1067.181,419.839438 1066.29481,420.789661 1065.02599,420.789661 Z" id="path-1"></path>
    </defs>
    <g id="Desktop---Formulär-States" stroke="none" stroke-width="1" fill="none" fill-rule="evenodd" transform="translate(-1044.000000, -391.000000)">
        <g id="Shape" fill-rule="nonzero">
            <use fill="#FF0000" fill-rule="evenodd" xlink:href="#path-1"></use>
            <path stroke-opacity="0" stroke="#979797" stroke-width="8.5" d="M1076.49051,400.509522 L1076.49056,400.509573 C1079.55412,403.573118 1081.2501,407.667666 1081.25,412.000116 C1081.25,416.332593 1079.55401,420.427095 1076.49043,423.490556 C1073.42684,426.55403 1069.33244,428.25 1065,428.25 C1060.66749,428.25 1056.57308,426.554054 1053.50952,423.490504 C1050.44602,420.427015 1048.75,416.33252 1048.75,412.000116 C1048.75,407.667585 1050.446,403.573082 1053.50957,400.509522 C1056.57318,397.446029 1060.66759,395.75 1065,395.75 C1069.33247,395.75 1073.42689,397.446019 1076.49051,400.509522 Z M1065.01248,407.581055 C1064.53414,407.412915 1064.09732,407.134959 1063.74173,406.765858 C1063.12201,406.122851 1062.79461,405.25635 1062.82717,404.377879 L1062.472,412.41515 C1062.54656,410.965244 1063.60054,409.76844 1065.00001,409.470478 C1066.40402,409.76965 1067.46047,410.976029 1067.53179,412.456013 L1067.19647,404.356297 C1067.22811,405.263508 1066.8983,406.128404 1066.28095,406.767887 L1066.27976,406.769117 C1065.92427,407.13705 1065.48859,407.413601 1065.01248,407.581055 Z M1062.472,412.41515 L1062.46996,412.461186 C1062.47053,412.445813 1062.47121,412.430467 1062.472,412.41515 Z M1067.53179,412.456013 C1067.53251,412.470911 1067.53313,412.485836 1067.53364,412.500789 L1067.53179,412.456013 Z M1065.02599,416.539661 C1063.8787,416.539661 1062.93087,417.556057 1062.93092,418.478805 C1062.93092,419.387074 1063.86885,420.392037 1065,420.392037 C1066.17196,420.392037 1067.06908,419.43081 1067.06908,418.478805 C1067.06908,417.491641 1066.15993,416.539661 1065.02599,416.539661 Z"></path>
        </g>
    </g>
</svg>
